      38
 i =      33, E =       -0.0584155523
 Ar         4.8849764900       -2.8212061684        3.7323029687
 Ar        -4.8690566480        3.0866502458        1.7608308653
 Ar        -3.4506168736       -0.7675947537       -3.1851150462
 Ar         3.1282136612       -4.7886088897       -3.3139183265
 Ar         0.6122528680        1.7621049587        5.7555717238
 Ar        -2.1713134420       -4.9007529895        2.0094502216
 Ar        -4.7534529526        3.0124593079       -2.3056401694
 Ar         2.6026981662       -1.3187114533       -4.8334515780
 Ar        -1.3274783945        3.3987388411        2.9257010626
 Ar         4.8066080342        2.9681002742        0.7201439701
 Ar        -0.7908848903       -0.7348021880       -6.3194847654
 Ar        -2.4164094553        2.3629006763       -5.2071735962
 Ar        -8.3248215999        3.9359715017        0.5690086807
 Ar         2.3564569064        4.0486019798        3.3176950847
 Ar         5.6549362568       -2.1360990250       -2.8034496207
 Ar         5.5635060318       -0.7352937886        0.5825372247
 Ar         2.6654068411        4.6939360416       -2.0184228451
 Ar         1.4996078159        2.6707258082       -5.1556733335
 Ar         0.3330571318        5.8306265397        0.6942348099
 Ar        -1.0046997286        3.9535621089       -2.2132775415
 Ar         3.8174822248        1.2094711822       -2.4196146830
 Ar        -3.0985593296        0.8862028388        5.1712541669
 Ar        -0.3446343635       -3.2672431349       -3.5724942331
 Ar        -5.9957298189        0.0673307656       -0.4056344835
 Ar         1.8434684435       -1.7566053639        5.8283363002
 Ar         4.4492745515       -4.4057402550        0.2923023380
 Ar        -3.9312174257       -1.4115491221        2.2930484452
 Ar        -4.5924141879       -3.5317307076       -0.8077797980
 Ar         0.7236587652       -5.3159300300       -0.5414055044
 Ar         1.3822607402       -3.2365782183        2.4242082354
 Ar        -1.6749063526       -2.7554877779        5.0495703570
 Ar         1.2099678088        2.0360021082        0.2582831501
 Ar         3.0750627374        0.3755288976        3.0069894677
 Ar        -0.0171818576        0.3961107109       -2.7946308311
 Ar         2.2785175141       -1.7419226490       -0.9207984005
 Ar        -2.3972855103        1.2341547034       -0.0980953776
 Ar        -0.4854016465       -0.1465163161        2.7476877275
 Ar        -1.2413271114       -2.1568116594       -0.2231012662
